578019 87012 470
344321 237337 407
105302 929811 525
366052 174934 443
861626 245633 525
948876 418266 525
578548 323418 470
100506 435236 449
367980 948079 525
589665 18873 470
836737 784156 468
644072 526531 509
777614 969911 525
105639 417362 449
387821 298160 441
625878 965840 525
901524 486552 525
203177 6827 383
416363 85581 449
698113 277989 509
331214 646989 509
212607 909762 525
486760 829465 509
861350 854740 388
777545 967368 525
873613 614282 525
751524 517685 509
657165 529138 509
3948 762804 509
946501 391769 525
577316 88731 470
357609 995193 525
91635 77139 338
518372 24350 470
162720 216485 386
302340 493935 449
379827 31299 443
920049 866587 476
860765 297752 525
721327 638310 504
265120 594941 470
768944 532996 509
628978 426109 509
578486 149279 470
705265 41339 509
541048 798934 509
646423 415010 509
794127 738058 468
492149 312499 449
762409 171221 509
45336 581101 470
181508 425163 449
612400 617910 447
808102 473165 509
915662 529430 525
627827 697134 442
640723 396771 509
746482 786053 468
822880 324968 509
935332 44498 525
366308 992733 525
843432 12731 525
407743 153911 443
267141 416244 449
982762 29550 525
587465 28098 470
127003 768974 509
969614 739404 525
903236 777716 525
728921 335250 509
823498 356749 509
32384 464221 449
269872 778866 509
766627 609105 509
620186 218311 470
653603 986494 525
211044 13387 383
515577 618787 452
167298 782719 509
551383 150060 470
328621 138849 443
694510 455625 509
424175 664124 509
711381 327411 509
958193 956654 352
662661 781691 504
313403 211397 443
762265 583276 509
506615 528892 470
708733 126801 509
747203 362336 509
629648 958248 525
892075 145225 525
93387 59373 351
444296 644771 509
725785 772918 468
299972 420295 449
744895 240499 509
600772 456276 470
567910 558965 421
412930 746923 509
340656 242686 407
474672 619273 470
342314 981287 525
148165 51047 375
624440 411721 470
929735 254088 525
886321 821810 525
399314 979708 525
397535 843610 525
140831 123320 344
132880 957155 525
543615 877775 525
197654 144387 383
850403 281916 525
219704 779686 509
545191 76713 470
538724 19863 470
695986 881038 525
517502 844152 525
448437 141943 449
772225 894524 525
396031 658546 509
232686 795345 509
154606 630221 509
155308 295438 443
753541 804540 468
768945 813508 468
198668 966600 525
474248 49071 449
248516 693952 509
345109 793708 509
770665 883833 525
329923 466652 449
281223 847426 525
827156 246012 509
989369 599381 525
140536 385400 443
257927 373222 441
697098 928885 525
3443 368758 443
224323 273336 443
173298 993269 525
86845 371966 443
476221 561093 470
937390 724737 525
771397 282499 509
34797 542063 470
682685 364721 509
525067 963908 525
212147 352223 443
726273 717868 411
467956 866809 525
103268 725883 509
756384 316718 509
171120 276179 443
201828 395444 443
549516 375127 470
905065 152713 525
263445 897638 525
230158 717187 509
622375 1555 470
999687 173525 525
543618 198724 470
538246 68685 470
678984 266745 509
937260 405257 525
500965 405216 449
788419 120585 509
647451 544803 509
437304 818572 509
820982 639132 504
730368 886850 525
530611 151785 470
39563 310409 443
49423 269721 443
27596 188150 383
271277 543635 470
361675 331247 441
742359 416273 509
916285 421344 525
199370 369897 443
342953 700335 509
775114 131372 509
820921 938917 525
192527 774577 509
273841 529862 470
413709 4209 449
933064 460673 525
672346 972628 525
771082 721769 468
758701 798678 468
909920 546330 525
342314 787947 509
393930 601025 470
720573 310215 509
22369 919943 525
680112 881675 525
136631 971578 525
13047 957552 525
910496 721927 525
248481 184337 443
251789 178542 443
704899 701205 504
639215 377245 509
673833 410297 509
615367 948887 525
725328 525287 509
11569 583994 470
829586 405499 509
185019 550159 470
232066 207389 443
986455 912179 507
605416 123086 470
400109 134815 443
596990 826957 509
856742 845471 419
527647 624883 452
540365 232546 470
326089 179581 443
126143 516274 470
106230 741510 509
465161 831558 509
783149 476731 509
415552 129088 449
398582 600572 470
679247 630649 442
324313 182054 443
59180 929729 525
305140 459289 449
580896 418482 470
802599 437639 509
780305 330246 509
578874 320671 470
79144 904963 525
500252 205287 449
937590 122834 525
463150 919103 525
470745 762651 509
912186 402649 525
891739 310769 525
519573 570987 452
941418 843886 507
269393 598 443
289967 574534 470
976239 870864 507
509368 778838 509
824855 289674 509
109084 403729 443
