1 999999 525
291 291 118
303 307 43
2048 4096 238
5674 7681 262
3 2398 183
589903 659083 509
754302 228214 509
25 75 116
23 91 116
91 23 116
7 22 21
262144 524288 470
99 100 26
999 1000 112
9 10 20
10 9 20
1000 999 112
10000 999 262
9991 10010 180
10100 9900 224
9900 10100 224
74321 3225 340
68923 67696 312
666 666 114
131313 141414 344
51 14 112
93 112 119
7 1 17
1 7 17
32 26 112
26 32 112
1956 2018 175
1957 2017 175
1958 2016 175
1960 2014 175
2022 2026 157
9 81 116
90 42 116
2064 2048 157
7192 8192 252
9291 69666 340
123456 654321 509
898786 687898 525
62 32 113
100000 99881 227
64723 223344 386
723895 421420 509
700 316 145
420 830 171
1 10000 262
10000 20000 279
20000 30000 308
30000 40000 324
50000 100000 351
678871 678872 186
11900 30455 308
97 82 119
5 996 179
24 8 21
2607 8100 262
153 68 122
9308 9424 198
11923 290 268
2978 3997 238
9574 9475 198
10110 10230 180
10350 10230 242
10530 10340 255
30349 90 308
1111 2222 182
15368 63661 340
2018 2019 113
2019 1984 144
732 1110 179
64 32 113
42075 75420 340
71432 65712 325
97686 51234 351
502386 443993 444
514643 21789 470
728 43 171
1037 21016 279
158 16 122
1635 1021 182
21613 1434 279
13 57 113
3 17 20
1 17 20
25 123 119
1621 1201 177
1818 2173 175
105 810 171
90 35 116
290 410 144
1604 10 182
57 23 113
360 5 144
51713 22 324
2224 6668 262
36928 38387 306
33643 32292 267
31419 31966 285
28596 31239 272
27313 27409 215
7357 5221 262
6129 3577 238
5619 195435 383
270437 746798 509
906398 999287 507
271 153 128
103 736 171
62 1678 182
153 273 128
839 893 179
765 4512 238
808 842 135
5993 6310 262
857 3630 217
597 930 179
746 22 171
88 77 111
11 22 21
22 33 112
33 44 110
44 55 113
115 698 145
402 446 134
58648 66810 335
348697 351841 379
70 800 171
132 6 122
133 5 122
544 449 142
190 415 144
1835 9414 262
587 681 145
1099 1101 94
7821 2242 262
2215 8334 262
60 74 116
232 69 128
247 519 144
588 747 171
349 552 142
885 885 117
957 355 179
257 317 131
553 395 142
616 843 171
640 260 144
164 382 144
355 395 121
7527 13725 276
4 8 17
32 57 113
208 493 144
398 110 144
876 110 179
1816 2426 183
6098 8192 262
2049 6849 262
7128 3100 262
22222 33333 308
30751 43210 324
802915 915784 525
67 89 116
11 28 112
85 43 116
43 95 116
96188 65793 351
61316 78446 351
84951 81297 320
75024 74274 325
52362 78 324
24298 65423 340
4343 8595 262
74274 76818 325
35510 36360 324
53462 73926 335
253 5775 238
617 631 132
518 6117 238
2444 9018 262
4210 6884 262
7255 2808 262
6658 7303 257
5122 5704 236
1 500 144
190 5 125
191 78 125
4263 7841 262
96 99 119
59 1 113
41 44 110
73 66 116
17 63 113
17 17 13
39 44 110
46 89 116
52 78 116
65 9 113
40 96 116
24 12 21
86 70 116
76 13 116
97 82 119
