1 10 20
100 200 125
201 210 89
900 1000 174
506892 117756 449
1931 529997 470
832488 450099 509
866622 454014 525
748845 188009 509
257640 984563 525
206790 230065 386
369033 479422 449
505112 765214 509
275083 450270 449
547843 109324 470
705435 198004 509
144271 901382 525
235464 751332 509
461397 439146 444
851256 675989 525
313323 259664 407
500729 548539 470
207819 221152 386
25896 554096 470
998134 725081 525
362798 239336 441
78172 375344 443
231073 700284 509
991367 379839 525
318142 221141 443
240773 472372 449
10073 31252 308
824364 531185 509
363509 386158 423
93548 185753 383
628100 309569 509
810782 885009 525
312516 318327 353
726104 893735 525
52214 301902 443
527491 667889 509
838074 168272 525
351887 551401 470
254149 917343 525
204715 894295 525
259127 689684 509
812464 370912 509
690260 738369 504
613515 494900 470
716824 416736 509
347678 931312 525
390306 294139 441
219298 16550 386
253000 117675 443
107668 454882 449
376717 857718 525
997621 458777 525
806550 301675 509
750092 367372 509
187920 771405 509
129397 667280 509
430941 810865 509
520442 406616 470
988974 271610 525
69631 563307 470
986119 317852 525
46038 143362 375
531448 162984 470
808805 437452 509
692014 963397 525
450927 409804 449
15053 840298 525
811080 389131 509
303433 392236 441
313111 310966 384
782220 217039 509
764626 611765 509
686938 81567 509
70091 451721 449
865595 458762 525
27141 363058 443
727215 312458 509
114279 235280 443
14358 288617 443
942472 729354 525
676081 478289 509
133232 366387 443
428633 316249 449
803485 617003 509
2032 268683 443
374552 404370 436
864458 513665 525
327854 84933 443
994138 806811 525
797042 4443 509
757841 219769 509
933136 685024 525
885664 800578 525
667515 837753 504
906932 963057 507
39716 760089 509
167932 24823 383
693403 56540 509
651814 442479 509

