935634 998794 507
708950 354220 509
584805 845361 525
373042 286402 441
27584 638759 509
364735 160075 443
833321 427827 509
826890 849421 525
330210 970145 525
688437 508413 509
680917 195651 509
881802 815891 525
376262 844610 525
345925 813410 509
944024 541095 525
643529 151601 509
596821 216900 470
858724 575997 525
726714 730721 380
301413 643808 509
669502 26681 509
57863 639708 509
671533 793011 504
100155 476175 449
276224 26302 443
458664 562915 470
836736 327802 509
806017 86253 509
978941 668320 525
34628 719839 509
541864 894589 525
674656 665480 398
482920 291847 449
796029 513449 509
172523 91763 383
126899 262012 443
66066 585277 470
876053 787766 525
312982 808835 509
109313 575318 470
246871 915951 525
809175 470702 509
98133 576248 470
173449 131788 383
465767 331372 449
545519 463877 470
491910 167758 449
643499 599330 509
307358 51827 443
889922 634113 525
881817 656414 525
218165 363893 443
459467 437428 400
26308 595604 470
780153 131341 509
209265 195039 373
900189 486628 525
610114 836878 509
404151 581799 470
607155 57166 470
619741 455715 470
920330 878952 476
927188 1089 525
504041 490924 426
574564 365160 470
265341 614695 470
653033 663492 429
356645 258291 441
500344 13423 449
793461 777419 437
110427 817948 509
171102 743731 509
199848 711404 509
589771 990129 525
214677 970177 525
343442 286446 389
291675 228859 443
660935 462835 509
891353 354702 525
252517 845142 525
107946 375346 443
543278 455642 470
138574 778045 509
855729 173567 525
381381 422639 449
234923 251231 368
964603 996414 458
395326 114286 443
516173 525542 439
8656 734346 509
29726 65455 340
910177 959684 507
53249 506030 449
374190 592434 470
954520 706138 525
928599 213247 525
295242 513438 470
854685 93431 525
341120 38102 443
506068 559442 470
327749 2420 443
677016 770727 504
383619 969170 525
124287 759871 509
297394 707963 509
250735 174571 443
351241 26229 443
200014 564033 470
362344 609551 470
450283 917790 525
865074 979233 507
883691 1411 525
997092 609252 525
998882 339858 525
871954 753042 525
154103 93275 375
190675 653172 509
355880 730773 509
884899 578073 525
411372 461387 444
967969 417281 525
338738 712834 509
832152 294774 509
646591 197466 509
651601 388667 509
909921 164171 525
41078 233140 443
206165 176223 365
394928 212168 443
231857 284125 407
658647 67164 509
912715 220769 525
747545 511224 509
955682 944391 414
175657 352879 443
723553 128725 509
373814 622477 470
865545 669641 525
140823 551930 470
459557 747491 509
308492 95244 443
799088 527442 509
807673 22174 509
952195 699647 525
572240 91330 470
15419 534269 470
197019 950631 525
740885 575530 509
858718 516762 525
30443 634292 509
643708 254173 509
539197 153490 470
38519 906606 525
909033 26920 525
148577 599688 470
341677 822101 509
743258 870734 525
673031 339841 509
243264 451021 449
170995 668814 509
473796 484418 413
933926 621349 525
870875 670127 525
519913 534807 408
372370 450364 449
114729 481264 449
999530 688989 525
948158 620718 525
240705 765834 509
965760 26048 525
442345 810808 509
506801 843056 525
581062 324814 470
70739 169349 383
386138 55673 443
320716 538696 470
89249 261055 443
533376 440706 470
820113 908164 525
213364 2746 383
605906 749819 509
2613 741579 509
674522 133564 509
173891 659947 509
393577 817503 509
701927 87206 509
661260 102316 509
864789 182576 525
474554 216800 449
951631 11546 525
906370 527174 525
740918 73410 509
876295 201057 525
199268 221195 386
201611 371191 443
912305 152346 525
902004 75745 525
639585 344730 509
195184 174445 365
306101 712083 509
43692 270760 443
386729 419722 449
86160 124936 354
881809 914589 476
605462 762941 509
780628 631371 504
634756 650070 416
986143 564399 525
79800 685182 509
455168 213843 449
434501 617580 470
960950 523048 525
563410 651336 509
214881 952826 525
402255 736487 509
551130 244276 470
680668 577332 509
671603 347433 509
453023 555428 470
899428 120493 525
55963 319221 443
106602 303809 443
728277 797437 468
115736 490275 449
57817 106016 351
525305 405207 470
506996 809086 509
557973 454409 470
114196 802365 509
614012 609928 354
18409 783599 509
923862 577539 525
53871 614637 470
993056 199253 525
578963 983947 525
814559 745381 468
739403 188270 509
717350 759033 424
92985 990852 525
526327 524751 408
41508 192690 383
372311 204617 443
416267 23799 449
885453 731751 525
596821 986234 525
775803 225753 509
787463 307391 509
13748 852658 525
85610 240279 443
242319 992675 525
